<?xml version="1.0" encoding="UTF-8" standalone="no"?>
<!-- Created with Inkscape (http://www.inkscape.org/) -->

<svg
   xmlns:dc="http://purl.org/dc/elements/1.1/"
   xmlns:cc="http://creativecommons.org/ns#"
   xmlns:rdf="http://www.w3.org/1999/02/22-rdf-syntax-ns#"
   xmlns:svg="http://www.w3.org/2000/svg"
   xmlns="http://www.w3.org/2000/svg"
   xmlns:sodipodi="http://sodipodi.sourceforge.net/DTD/sodipodi-0.dtd"
   xmlns:inkscape="http://www.inkscape.org/namespaces/inkscape"
   width="65.997757mm"
   height="65.712669mm"
   viewBox="0 0 233.85032 232.84017"
   id="svg2"
   version="1.1"
   inkscape:version="0.91 r"
   sodipodi:docname="barista-diagram.svg">
  <defs
     id="defs4" />
  <sodipodi:namedview
     id="base"
     pagecolor="#ffffff"
     bordercolor="#666666"
     borderopacity="1.0"
     inkscape:pageopacity="0.0"
     inkscape:pageshadow="2"
     inkscape:zoom="1.979899"
     inkscape:cx="77.221979"
     inkscape:cy="147.98798"
     inkscape:document-units="px"
     inkscape:current-layer="layer1"
     showgrid="false"
     showguides="true"
     inkscape:guide-bbox="true"
     inkscape:window-width="1920"
     inkscape:window-height="1023"
     inkscape:window-x="0"
     inkscape:window-y="33"
     inkscape:window-maximized="1"
     showborder="false"
     fit-margin-top="0"
     fit-margin-left="0"
     fit-margin-right="0"
     fit-margin-bottom="0" />
  <metadata
     id="metadata7">
    <rdf:RDF>
      <cc:Work
         rdf:about="">
        <dc:format>image/svg+xml</dc:format>
        <dc:type
           rdf:resource="http://purl.org/dc/dcmitype/StillImage" />
        <dc:title></dc:title>
      </cc:Work>
    </rdf:RDF>
  </metadata>
  <g
     inkscape:label="Layer 1"
     inkscape:groupmode="layer"
     id="layer1">
    <rect
       style="fill:#dedede;fill-opacity:1;fill-rule:evenodd;stroke:none;stroke-width:1px;stroke-linecap:butt;stroke-linejoin:miter;stroke-opacity:1"
       id="rect3336"
       width="232.84018"
       height="233.85031"
       x="0"
       y="-233.85031"
       transform="matrix(0,1,-1,0,0,0)" />
    <path
       style="fill:none;fill-rule:evenodd;stroke:#000000;stroke-width:0.69710827px;stroke-linecap:butt;stroke-linejoin:miter;stroke-opacity:1"
       d="m 15,130.42009 203.40893,0"
       id="path4140"
       inkscape:connector-curvature="0" />
    <g
       id="g4359"
       transform="translate(2.0144424,0)">
      <path
         inkscape:connector-curvature="0"
         id="path4138"
         d="m 79.910712,9.8154823 0,103.2233077"
         style="fill:none;fill-rule:evenodd;stroke:#000000;stroke-width:0.55988961;stroke-linecap:butt;stroke-linejoin:miter;stroke-miterlimit:4;stroke-dasharray:4.47911712, 0.55988964;stroke-dashoffset:0;stroke-opacity:1" />
      <g
         id="g4333">
        <g
           id="g4191">
          <g
             id="g4168">
            <text
               xml:space="preserve"
               style="font-style:normal;font-weight:normal;font-size:12.5px;line-height:125%;font-family:sans-serif;text-align:center;letter-spacing:0px;word-spacing:0px;text-anchor:middle;fill:#000000;fill-opacity:1;stroke:none;stroke-width:1px;stroke-linecap:butt;stroke-linejoin:miter;stroke-opacity:1"
               x="45.312241"
               y="75.933632"
               id="text4150"
               sodipodi:linespacing="125%"><tspan
                 sodipodi:role="line"
                 id="tspan4152"
                 x="45.312241"
                 y="75.933632">project</tspan><tspan
                 sodipodi:role="line"
                 x="45.312241"
                 y="91.558632"
                 id="tspan4154">type</tspan></text>
            <rect
               style="fill:#8a8a8a;fill-opacity:1;stroke:#000000;stroke-width:1;stroke-miterlimit:4;stroke-dasharray:none;stroke-dashoffset:0;stroke-opacity:1"
               id="rect4142"
               width="50.17857"
               height="29.107143"
               x="19.821428"
               y="27.719345"
               ry="5" />
          </g>
          <text
             sodipodi:linespacing="125%"
             id="text4156"
             y="45.003021"
             x="28.782784"
             style="font-style:normal;font-weight:normal;font-size:7.5px;line-height:125%;font-family:sans-serif;letter-spacing:0px;word-spacing:0px;fill:#000000;fill-opacity:1;stroke:none;stroke-width:1px;stroke-linecap:butt;stroke-linejoin:miter;stroke-opacity:1"
             xml:space="preserve"><tspan
               style="font-size:7.5px"
               y="45.003021"
               x="28.782784"
               id="tspan4158"
               sodipodi:role="line">100MB+</tspan></text>
        </g>
        <g
           id="g4200"
           transform="translate(70,0)">
          <g
             id="g4202">
            <text
               sodipodi:linespacing="125%"
               id="text4204"
               y="75.933632"
               x="45.312241"
               style="font-style:normal;font-weight:normal;font-size:12.5px;line-height:125%;font-family:sans-serif;text-align:center;letter-spacing:0px;word-spacing:0px;text-anchor:middle;fill:#000000;fill-opacity:1;stroke:none;stroke-width:1px;stroke-linecap:butt;stroke-linejoin:miter;stroke-opacity:1"
               xml:space="preserve"><tspan
                 y="75.933632"
                 x="45.312241"
                 id="tspan4206"
                 sodipodi:role="line">project</tspan><tspan
                 id="tspan4208"
                 y="91.558632"
                 x="45.312241"
                 sodipodi:role="line">type</tspan></text>
            <rect
               ry="5"
               y="27.719345"
               x="19.821428"
               height="29.107143"
               width="50.17857"
               id="rect4210"
               style="fill:#8a8a8a;fill-opacity:1;stroke:#000000;stroke-width:1;stroke-miterlimit:4;stroke-dasharray:none;stroke-dashoffset:0;stroke-opacity:1" />
          </g>
          <text
             xml:space="preserve"
             style="font-style:normal;font-weight:normal;font-size:7.5px;line-height:125%;font-family:sans-serif;letter-spacing:0px;word-spacing:0px;fill:#000000;fill-opacity:1;stroke:none;stroke-width:1px;stroke-linecap:butt;stroke-linejoin:miter;stroke-opacity:1"
             x="28.782784"
             y="45.003021"
             id="text4212"
             sodipodi:linespacing="125%"><tspan
               sodipodi:role="line"
               id="tspan4214"
               x="28.782784"
               y="45.003021"
               style="font-size:7.5px">100MB+</tspan></text>
        </g>
        <g
           transform="translate(140,0)"
           id="g4216">
          <g
             id="g4218">
            <text
               xml:space="preserve"
               style="font-style:normal;font-weight:normal;font-size:12.5px;line-height:125%;font-family:sans-serif;text-align:center;letter-spacing:0px;word-spacing:0px;text-anchor:middle;fill:#000000;fill-opacity:1;stroke:none;stroke-width:1px;stroke-linecap:butt;stroke-linejoin:miter;stroke-opacity:1"
               x="45.312241"
               y="75.933632"
               id="text4220"
               sodipodi:linespacing="125%"><tspan
                 sodipodi:role="line"
                 id="tspan4222"
                 x="45.312241"
                 y="75.933632">project</tspan><tspan
                 sodipodi:role="line"
                 x="45.312241"
                 y="91.558632"
                 id="tspan4224">type</tspan></text>
            <rect
               style="fill:#8a8a8a;fill-opacity:1;stroke:#000000;stroke-width:1;stroke-miterlimit:4;stroke-dasharray:none;stroke-dashoffset:0;stroke-opacity:1"
               id="rect4226"
               width="50.17857"
               height="29.107143"
               x="19.821428"
               y="27.719345"
               ry="5" />
          </g>
          <text
             sodipodi:linespacing="125%"
             id="text4228"
             y="45.003021"
             x="28.782784"
             style="font-style:normal;font-weight:normal;font-size:7.5px;line-height:125%;font-family:sans-serif;letter-spacing:0px;word-spacing:0px;fill:#000000;fill-opacity:1;stroke:none;stroke-width:1px;stroke-linecap:butt;stroke-linejoin:miter;stroke-opacity:1"
             xml:space="preserve"><tspan
               style="font-size:7.5px"
               y="45.003021"
               x="28.782784"
               id="tspan4230"
               sodipodi:role="line">100MB+</tspan></text>
        </g>
      </g>
      <path
         style="fill:none;fill-rule:evenodd;stroke:#000000;stroke-width:0.55988961;stroke-linecap:butt;stroke-linejoin:miter;stroke-miterlimit:4;stroke-dasharray:4.47911712, 0.55988964;stroke-dashoffset:0;stroke-opacity:1"
         d="m 149.91071,9.8154823 0,103.2233077"
         id="path4232"
         inkscape:connector-curvature="0" />
    </g>
    <g
       id="g4312"
       transform="translate(2.2669829,0)">
      <g
         transform="translate(-0.25254056,0)"
         id="g4279">
        <rect
           ry="5"
           y="187.71935"
           x="89.821426"
           height="29.107143"
           width="50.17857"
           id="rect4277"
           style="fill:#8a8a8a;fill-opacity:1;stroke:#000000;stroke-width:1;stroke-miterlimit:4;stroke-dasharray:none;stroke-dashoffset:0;stroke-opacity:1" />
        <text
           xml:space="preserve"
           style="font-style:normal;font-weight:normal;font-size:9.79215622px;line-height:125%;font-family:sans-serif;text-align:center;letter-spacing:0px;word-spacing:0px;text-anchor:middle;fill:#000000;fill-opacity:1;stroke:none;stroke-width:1px;stroke-linecap:butt;stroke-linejoin:miter;stroke-opacity:1"
           x="114.58558"
           y="198.85426"
           id="text4254"
           sodipodi:linespacing="125%"><tspan
             sodipodi:role="line"
             id="tspan4256"
             x="114.58558"
             y="198.85426">project</tspan><tspan
             sodipodi:role="line"
             x="114.58558"
             y="211.09445"
             id="tspan4258">type</tspan></text>
      </g>
      <g
         id="g4307">
        <rect
           style="fill:#8a8a8a;fill-opacity:1;stroke:#000000;stroke-width:1;stroke-miterlimit:4;stroke-dasharray:none;stroke-dashoffset:0;stroke-opacity:1"
           id="rect4260"
           width="50.17857"
           height="29.107143"
           x="89.821426"
           y="147.71935"
           ry="5" />
        <text
           xml:space="preserve"
           style="font-style:normal;font-weight:normal;font-size:7.5px;line-height:125%;font-family:sans-serif;letter-spacing:0px;word-spacing:0px;fill:#000000;fill-opacity:1;stroke:none;stroke-width:1px;stroke-linecap:butt;stroke-linejoin:miter;stroke-opacity:1"
           x="98.782784"
           y="165.00302"
           id="text4262"
           sodipodi:linespacing="125%"><tspan
             sodipodi:role="line"
             id="tspan4264"
             x="98.782784"
             y="165.00302"
             style="font-size:7.5px">100MB+</tspan></text>
      </g>
      <g
         transform="translate(-70.101526,0)"
         id="g4285">
        <rect
           style="fill:#8a8a8a;fill-opacity:1;stroke:#000000;stroke-width:1;stroke-miterlimit:4;stroke-dasharray:none;stroke-dashoffset:0;stroke-opacity:1"
           id="rect4287"
           width="50.17857"
           height="29.107143"
           x="89.821426"
           y="187.71935"
           ry="5" />
        <text
           sodipodi:linespacing="125%"
           id="text4289"
           y="198.85426"
           x="114.58558"
           style="font-style:normal;font-weight:normal;font-size:9.79215622px;line-height:125%;font-family:sans-serif;text-align:center;letter-spacing:0px;word-spacing:0px;text-anchor:middle;fill:#000000;fill-opacity:1;stroke:none;stroke-width:1px;stroke-linecap:butt;stroke-linejoin:miter;stroke-opacity:1"
           xml:space="preserve"><tspan
             y="198.85426"
             x="114.58558"
             id="tspan4291"
             sodipodi:role="line">project</tspan><tspan
             id="tspan4293"
             y="211.09445"
             x="114.58558"
             sodipodi:role="line">type</tspan></text>
      </g>
      <g
         transform="translate(69.596449,0)"
         id="g4295">
        <rect
           style="fill:#8a8a8a;fill-opacity:1;stroke:#000000;stroke-width:1;stroke-miterlimit:4;stroke-dasharray:none;stroke-dashoffset:0;stroke-opacity:1"
           id="rect4297"
           width="50.17857"
           height="29.107143"
           x="89.821426"
           y="187.71935"
           ry="5" />
        <text
           sodipodi:linespacing="125%"
           id="text4299"
           y="198.85426"
           x="114.58558"
           style="font-style:normal;font-weight:normal;font-size:9.79215622px;line-height:125%;font-family:sans-serif;text-align:center;letter-spacing:0px;word-spacing:0px;text-anchor:middle;fill:#000000;fill-opacity:1;stroke:none;stroke-width:1px;stroke-linecap:butt;stroke-linejoin:miter;stroke-opacity:1"
           xml:space="preserve"><tspan
             y="198.85426"
             x="114.58558"
             id="tspan4301"
             sodipodi:role="line">project</tspan><tspan
             id="tspan4303"
             y="211.09445"
             x="114.58558"
             sodipodi:role="line">type</tspan></text>
      </g>
    </g>
  </g>
</svg>
